%YAML 1.1
%TAG !u! tag:unity3d.com,2011:
--- !u!114 &11400000
MonoBehaviour:
  m_ObjectHideFlags: 0
  m_CorrespondingSourceObject: {fileID: 0}
  m_PrefabInstance: {fileID: 0}
  m_PrefabAsset: {fileID: 0}
  m_GameObject: {fileID: 0}
  m_Enabled: 1
  m_EditorHideFlags: 0
  m_Script: {fileID: 11500000, guid: dc32d6deac0686647b2375359aae7cca, type: 3}
  m_Name: MenuParametersSave01
  m_EditorClassIdentifier: 
  masterVolume: 50
  musicVolume: 50
  fxVolume: 50
  voiceVolume: 50
  roundToWin: 10
