%YAML 1.1
%TAG !u! tag:unity3d.com,2011:
--- !u!74 &7400000
AnimationClip:
  m_ObjectHideFlags: 0
  m_CorrespondingSourceObject: {fileID: 0}
  m_PrefabInstance: {fileID: 0}
  m_PrefabAsset: {fileID: 0}
  m_Name: Walk02Backwards01
  serializedVersion: 6
  m_Legacy: 0
  m_Compressed: 0
  m_UseHighQualityCurve: 1
  m_RotationCurves: []
  m_CompressedRotationCurves: []
  m_EulerCurves: []
  m_PositionCurves: []
  m_ScaleCurves: []
  m_FloatCurves: []
  m_PPtrCurves:
  - curve:
    - time: 0
      value: {fileID: 21300000, guid: d945655b41b4c2c48bf9ec59fcc3c064, type: 3}
    - time: 0.28
      value: {fileID: 21300000, guid: 9b9787202f7c8d3489b770a7120baafc, type: 3}
    - time: 0.56
      value: {fileID: 21300000, guid: ba1bb5b5616b7aa4491464c4da105048, type: 3}
    - time: 0.84
      value: {fileID: 21300000, guid: ff49572e69bc20e4da2779630134634a, type: 3}
    - time: 1.08
      value: {fileID: 21300000, guid: dc3c9d7f034db2d4a93e0b33f0bad813, type: 3}
    - time: 1.4
      value: {fileID: 21300000, guid: 7f760654b163ee14b92b3df03b5352a8, type: 3}
    - time: 1.68
      value: {fileID: 21300000, guid: 2b261c7aedc0b6844998e0cc8462c164, type: 3}
    - time: 1.96
      value: {fileID: 21300000, guid: 3c198afd352a2924cb662b5be4bae0c4, type: 3}
    - time: 2.24
      value: {fileID: 21300000, guid: 0aae19ed3c4c9454496b5589360cbd39, type: 3}
    attribute: m_Sprite
    path: 
    classID: 212
    script: {fileID: 0}
  m_SampleRate: 25
  m_WrapMode: 0
  m_Bounds:
    m_Center: {x: 0, y: 0, z: 0}
    m_Extent: {x: 0, y: 0, z: 0}
  m_ClipBindingConstant:
    genericBindings:
    - serializedVersion: 2
      path: 0
      attribute: 0
      script: {fileID: 0}
      typeID: 212
      customType: 23
      isPPtrCurve: 1
    pptrCurveMapping:
    - {fileID: 21300000, guid: d945655b41b4c2c48bf9ec59fcc3c064, type: 3}
    - {fileID: 21300000, guid: 9b9787202f7c8d3489b770a7120baafc, type: 3}
    - {fileID: 21300000, guid: ba1bb5b5616b7aa4491464c4da105048, type: 3}
    - {fileID: 21300000, guid: ff49572e69bc20e4da2779630134634a, type: 3}
    - {fileID: 21300000, guid: dc3c9d7f034db2d4a93e0b33f0bad813, type: 3}
    - {fileID: 21300000, guid: 7f760654b163ee14b92b3df03b5352a8, type: 3}
    - {fileID: 21300000, guid: 2b261c7aedc0b6844998e0cc8462c164, type: 3}
    - {fileID: 21300000, guid: 3c198afd352a2924cb662b5be4bae0c4, type: 3}
    - {fileID: 21300000, guid: 0aae19ed3c4c9454496b5589360cbd39, type: 3}
  m_AnimationClipSettings:
    serializedVersion: 2
    m_AdditiveReferencePoseClip: {fileID: 0}
    m_AdditiveReferencePoseTime: 0
    m_StartTime: 0
    m_StopTime: 2.28
    m_OrientationOffsetY: 0
    m_Level: 0
    m_CycleOffset: 0
    m_HasAdditiveReferencePose: 0
    m_LoopTime: 1
    m_LoopBlend: 0
    m_LoopBlendOrientation: 0
    m_LoopBlendPositionY: 0
    m_LoopBlendPositionXZ: 0
    m_KeepOriginalOrientation: 0
    m_KeepOriginalPositionY: 1
    m_KeepOriginalPositionXZ: 0
    m_HeightFromFeet: 0
    m_Mirror: 0
  m_EditorCurves: []
  m_EulerEditorCurves: []
  m_HasGenericRootTransform: 0
  m_HasMotionFloatCurves: 0
  m_Events: []
