%YAML 1.1
%TAG !u! tag:unity3d.com,2011:
--- !u!74 &7400000
AnimationClip:
  m_ObjectHideFlags: 0
  m_CorrespondingSourceObject: {fileID: 0}
  m_PrefabInstance: {fileID: 0}
  m_PrefabAsset: {fileID: 0}
  m_Name: Draw01
  serializedVersion: 6
  m_Legacy: 0
  m_Compressed: 0
  m_UseHighQualityCurve: 1
  m_RotationCurves: []
  m_CompressedRotationCurves: []
  m_EulerCurves: []
  m_PositionCurves: []
  m_ScaleCurves: []
  m_FloatCurves:
  - curve:
      serializedVersion: 2
      m_Curve:
      - serializedVersion: 3
        time: 0
        value: 0
        inSlope: Infinity
        outSlope: Infinity
        tangentMode: 103
        weightedMode: 0
        inWeight: 0
        outWeight: 0
      - serializedVersion: 3
        time: 1.36
        value: 1
        inSlope: Infinity
        outSlope: Infinity
        tangentMode: 103
        weightedMode: 0
        inWeight: 0
        outWeight: 0
      m_PreInfinity: 2
      m_PostInfinity: 2
      m_RotationOrder: 4
    attribute: m_IsActive
    path: Audio/FX/Sneath
    classID: 1
    script: {fileID: 0}
  m_PPtrCurves:
  - curve:
    - time: 0
      value: {fileID: 21300000, guid: 9e965bc54015f9a4e8b546efcd825292, type: 3}
    - time: 0.2
      value: {fileID: 21300000, guid: 606a2ec5e0b33d04ab4688540cedf838, type: 3}
    - time: 0.36
      value: {fileID: 21300000, guid: 9b2abec71b1800c45992a1f625b0419d, type: 3}
    - time: 0.44
      value: {fileID: 21300000, guid: e9503ee80e95d704f9f255db0e9bca8a, type: 3}
    - time: 0.68
      value: {fileID: 21300000, guid: 41d43b8cbd21eb34091a21c5f4015ebb, type: 3}
    - time: 0.84
      value: {fileID: 21300000, guid: b4842743dadd6844b8d72f9a5d946cb6, type: 3}
    - time: 1.36
      value: {fileID: 21300000, guid: 47d4384d8a0321643b54ada99e35893a, type: 3}
    - time: 1.48
      value: {fileID: 21300000, guid: 415e3148c15f3f346b40f14cf8c648ee, type: 3}
    - time: 1.6
      value: {fileID: 21300000, guid: 30fd0b26490e6754380d5287c1e77a79, type: 3}
    - time: 1.72
      value: {fileID: 21300000, guid: 439cfcc857916f341a45b64fda62be5e, type: 3}
    attribute: m_Sprite
    path: Sprite
    classID: 212
    script: {fileID: 0}
  m_SampleRate: 25
  m_WrapMode: 0
  m_Bounds:
    m_Center: {x: 0, y: 0, z: 0}
    m_Extent: {x: 0, y: 0, z: 0}
  m_ClipBindingConstant:
    genericBindings:
    - serializedVersion: 2
      path: 1067792872
      attribute: 2086281974
      script: {fileID: 0}
      typeID: 1
      customType: 0
      isPPtrCurve: 0
    - serializedVersion: 2
      path: 850496168
      attribute: 0
      script: {fileID: 0}
      typeID: 212
      customType: 23
      isPPtrCurve: 1
    pptrCurveMapping:
    - {fileID: 21300000, guid: 9e965bc54015f9a4e8b546efcd825292, type: 3}
    - {fileID: 21300000, guid: 606a2ec5e0b33d04ab4688540cedf838, type: 3}
    - {fileID: 21300000, guid: 9b2abec71b1800c45992a1f625b0419d, type: 3}
    - {fileID: 21300000, guid: e9503ee80e95d704f9f255db0e9bca8a, type: 3}
    - {fileID: 21300000, guid: 41d43b8cbd21eb34091a21c5f4015ebb, type: 3}
    - {fileID: 21300000, guid: b4842743dadd6844b8d72f9a5d946cb6, type: 3}
    - {fileID: 21300000, guid: 47d4384d8a0321643b54ada99e35893a, type: 3}
    - {fileID: 21300000, guid: 415e3148c15f3f346b40f14cf8c648ee, type: 3}
    - {fileID: 21300000, guid: 30fd0b26490e6754380d5287c1e77a79, type: 3}
    - {fileID: 21300000, guid: 439cfcc857916f341a45b64fda62be5e, type: 3}
  m_AnimationClipSettings:
    serializedVersion: 2
    m_AdditiveReferencePoseClip: {fileID: 0}
    m_AdditiveReferencePoseTime: 0
    m_StartTime: 0
    m_StopTime: 1.76
    m_OrientationOffsetY: 0
    m_Level: 0
    m_CycleOffset: 0
    m_HasAdditiveReferencePose: 0
    m_LoopTime: 0
    m_LoopBlend: 0
    m_LoopBlendOrientation: 0
    m_LoopBlendPositionY: 0
    m_LoopBlendPositionXZ: 0
    m_KeepOriginalOrientation: 0
    m_KeepOriginalPositionY: 1
    m_KeepOriginalPositionXZ: 0
    m_HeightFromFeet: 0
    m_Mirror: 0
  m_EditorCurves:
  - curve:
      serializedVersion: 2
      m_Curve:
      - serializedVersion: 3
        time: 0
        value: 0
        inSlope: Infinity
        outSlope: Infinity
        tangentMode: 103
        weightedMode: 0
        inWeight: 0
        outWeight: 0
      - serializedVersion: 3
        time: 1.36
        value: 1
        inSlope: Infinity
        outSlope: Infinity
        tangentMode: 103
        weightedMode: 0
        inWeight: 0
        outWeight: 0
      m_PreInfinity: 2
      m_PostInfinity: 2
      m_RotationOrder: 4
    attribute: m_IsActive
    path: Audio/FX/Sneath
    classID: 1
    script: {fileID: 0}
  m_EulerEditorCurves: []
  m_HasGenericRootTransform: 0
  m_HasMotionFloatCurves: 0
  m_Events: []
