%YAML 1.1
%TAG !u! tag:unity3d.com,2011:
--- !u!74 &7400000
AnimationClip:
  m_ObjectHideFlags: 0
  m_CorrespondingSourceObject: {fileID: 0}
  m_PrefabInstance: {fileID: 0}
  m_PrefabAsset: {fileID: 0}
  m_Name: Walk
  serializedVersion: 6
  m_Legacy: 0
  m_Compressed: 0
  m_UseHighQualityCurve: 1
  m_RotationCurves: []
  m_CompressedRotationCurves: []
  m_EulerCurves: []
  m_PositionCurves: []
  m_ScaleCurves: []
  m_FloatCurves:
  - curve:
      serializedVersion: 2
      m_Curve:
      - serializedVersion: 3
        time: 0
        value: 1
        inSlope: Infinity
        outSlope: Infinity
        tangentMode: 103
        weightedMode: 0
        inWeight: 0
        outWeight: 0
      - serializedVersion: 3
        time: 0.04
        value: 0
        inSlope: Infinity
        outSlope: Infinity
        tangentMode: 103
        weightedMode: 0
        inWeight: 0
        outWeight: 0
      - serializedVersion: 3
        time: 0.48
        value: 1
        inSlope: Infinity
        outSlope: Infinity
        tangentMode: 103
        weightedMode: 0
        inWeight: 0
        outWeight: 0
      - serializedVersion: 3
        time: 0.52
        value: 0
        inSlope: Infinity
        outSlope: Infinity
        tangentMode: 103
        weightedMode: 0
        inWeight: 0
        outWeight: 0
      - serializedVersion: 3
        time: 0.96
        value: 1
        inSlope: Infinity
        outSlope: Infinity
        tangentMode: 103
        weightedMode: 0
        inWeight: 0
        outWeight: 0
      m_PreInfinity: 2
      m_PostInfinity: 2
      m_RotationOrder: 4
    attribute: play
    path: Audio/FX/Walk
    classID: 114
    script: {fileID: 11500000, guid: 73d29140ea5e52c4c862af346a4d92ab, type: 3}
  m_PPtrCurves:
  - curve:
    - time: 0
      value: {fileID: 21300000, guid: 9b23067d3709d9d44a6330747d3ab1e7, type: 3}
    - time: 0.12
      value: {fileID: 21300000, guid: 3af2f9b0465a21f4681f66d53608b9b1, type: 3}
    - time: 0.24
      value: {fileID: 21300000, guid: bdbf270f4eca8cf4db404d97e35aff70, type: 3}
    - time: 0.36
      value: {fileID: 21300000, guid: 7a68083e9d14b734f90bc6093eb57263, type: 3}
    - time: 0.48
      value: {fileID: 21300000, guid: 668f8fce78944494da0ee4e95897ddcf, type: 3}
    - time: 0.6
      value: {fileID: 21300000, guid: 2138b5151f16bda4cb34a6d231caaa5a, type: 3}
    - time: 0.72
      value: {fileID: 21300000, guid: f92d4e5c11aae0949804609c3a8e2f76, type: 3}
    - time: 0.84
      value: {fileID: 21300000, guid: 3b725e8663c41114b8f3ee01eeaae256, type: 3}
    - time: 0.96
      value: {fileID: 21300000, guid: a2d0b3588e04f0843a160a94e9135022, type: 3}
    attribute: m_Sprite
    path: Sprite
    classID: 212
    script: {fileID: 0}
  m_SampleRate: 25
  m_WrapMode: 0
  m_Bounds:
    m_Center: {x: 0, y: 0, z: 0}
    m_Extent: {x: 0, y: 0, z: 0}
  m_ClipBindingConstant:
    genericBindings:
    - serializedVersion: 2
      path: 897938620
      attribute: 1586093754
      script: {fileID: 11500000, guid: 73d29140ea5e52c4c862af346a4d92ab, type: 3}
      typeID: 114
      customType: 0
      isPPtrCurve: 0
    - serializedVersion: 2
      path: 850496168
      attribute: 0
      script: {fileID: 0}
      typeID: 212
      customType: 23
      isPPtrCurve: 1
    pptrCurveMapping:
    - {fileID: 21300000, guid: 9b23067d3709d9d44a6330747d3ab1e7, type: 3}
    - {fileID: 21300000, guid: 3af2f9b0465a21f4681f66d53608b9b1, type: 3}
    - {fileID: 21300000, guid: bdbf270f4eca8cf4db404d97e35aff70, type: 3}
    - {fileID: 21300000, guid: 7a68083e9d14b734f90bc6093eb57263, type: 3}
    - {fileID: 21300000, guid: 668f8fce78944494da0ee4e95897ddcf, type: 3}
    - {fileID: 21300000, guid: 2138b5151f16bda4cb34a6d231caaa5a, type: 3}
    - {fileID: 21300000, guid: f92d4e5c11aae0949804609c3a8e2f76, type: 3}
    - {fileID: 21300000, guid: 3b725e8663c41114b8f3ee01eeaae256, type: 3}
    - {fileID: 21300000, guid: a2d0b3588e04f0843a160a94e9135022, type: 3}
  m_AnimationClipSettings:
    serializedVersion: 2
    m_AdditiveReferencePoseClip: {fileID: 0}
    m_AdditiveReferencePoseTime: 0
    m_StartTime: 0
    m_StopTime: 1
    m_OrientationOffsetY: 0
    m_Level: 0
    m_CycleOffset: 0
    m_HasAdditiveReferencePose: 0
    m_LoopTime: 1
    m_LoopBlend: 0
    m_LoopBlendOrientation: 0
    m_LoopBlendPositionY: 0
    m_LoopBlendPositionXZ: 0
    m_KeepOriginalOrientation: 0
    m_KeepOriginalPositionY: 1
    m_KeepOriginalPositionXZ: 0
    m_HeightFromFeet: 0
    m_Mirror: 0
  m_EditorCurves:
  - curve:
      serializedVersion: 2
      m_Curve:
      - serializedVersion: 3
        time: 0
        value: 1
        inSlope: Infinity
        outSlope: Infinity
        tangentMode: 103
        weightedMode: 0
        inWeight: 0
        outWeight: 0
      - serializedVersion: 3
        time: 0.04
        value: 0
        inSlope: Infinity
        outSlope: Infinity
        tangentMode: 103
        weightedMode: 0
        inWeight: 0
        outWeight: 0
      - serializedVersion: 3
        time: 0.48
        value: 1
        inSlope: Infinity
        outSlope: Infinity
        tangentMode: 103
        weightedMode: 0
        inWeight: 0
        outWeight: 0
      - serializedVersion: 3
        time: 0.52
        value: 0
        inSlope: Infinity
        outSlope: Infinity
        tangentMode: 103
        weightedMode: 0
        inWeight: 0
        outWeight: 0
      - serializedVersion: 3
        time: 0.96
        value: 1
        inSlope: Infinity
        outSlope: Infinity
        tangentMode: 103
        weightedMode: 0
        inWeight: 0
        outWeight: 0
      m_PreInfinity: 2
      m_PostInfinity: 2
      m_RotationOrder: 4
    attribute: play
    path: Audio/FX/Walk
    classID: 114
    script: {fileID: 11500000, guid: 73d29140ea5e52c4c862af346a4d92ab, type: 3}
  m_EulerEditorCurves: []
  m_HasGenericRootTransform: 0
  m_HasMotionFloatCurves: 0
  m_Events: []
